%YAML 1.1
%TAG !u! tag:unity3d.com,2011:
--- !u!114 &11400000
MonoBehaviour:
  m_ObjectHideFlags: 0
  m_PrefabParentObject: {fileID: 0}
  m_PrefabInternal: {fileID: 0}
  m_GameObject: {fileID: 0}
  m_Enabled: 1
  m_EditorHideFlags: 0
  m_Script: {fileID: 11500000, guid: 6d681eae82bb099418f4a8bcc2d05e3f, type: 3}
  m_Name: Eval Reinforce Protective
  m_EditorClassIdentifier: 
  description: Should the AI reinforce?
  weight: 1
  considerations:
  - {fileID: 11400000, guid: 6592ea86942ec974d8e1bc5013d104f4, type: 2}
  - {fileID: 11400000, guid: 6b92ec67337ffa144b82205a7ba29e5d, type: 2}
