%YAML 1.1
%TAG !u! tag:unity3d.com,2011:
--- !u!114 &11400000
MonoBehaviour:
  m_ObjectHideFlags: 0
  m_PrefabParentObject: {fileID: 0}
  m_PrefabInternal: {fileID: 0}
  m_GameObject: {fileID: 0}
  m_Enabled: 1
  m_EditorHideFlags: 0
  m_Script: {fileID: 11500000, guid: 6d681eae82bb099418f4a8bcc2d05e3f, type: 3}
  m_Name: Eval Attack
  m_EditorClassIdentifier: 
  description: Should the AI attack?
  weight: 1
  considerations:
  - {fileID: 11400000, guid: aeb683af0fc1e9344b5a28ff8ecd3552, type: 2}
  - {fileID: 11400000, guid: ac36c91a0e495154ea66fc6da6d73733, type: 2}
