%YAML 1.1
%TAG !u! tag:unity3d.com,2011:
--- !u!114 &11400000
MonoBehaviour:
  m_ObjectHideFlags: 0
  m_PrefabParentObject: {fileID: 0}
  m_PrefabInternal: {fileID: 0}
  m_GameObject: {fileID: 0}
  m_Enabled: 1
  m_EditorHideFlags: 0
  m_Script: {fileID: 11500000, guid: 46d3bfe61465c4c43ab28f0ddc85a9a7, type: 3}
  m_Name: Opponent Protective Intelligence
  m_EditorClassIdentifier: 
  description: 'Dungeon Master Intelligence '
  startScoreMinimum: 0
  sets:
  - {fileID: 11400000, guid: f3a22ef241cefcd4bb998874e88d9f6a, type: 2}
